<?xml version="1.0" encoding="UTF-8"?>
<svg width="88px" height="113px" viewBox="0 0 88 113" version="1.1" xmlns="http://www.w3.org/2000/svg" xmlns:xlink="http://www.w3.org/1999/xlink">
    <title>Fill 1</title>
    <g id="Desktop" stroke="none" stroke-width="1" fill="none" fill-rule="evenodd">
        <g id="Header" transform="translate(-671.000000, -112.000000)">
            <rect id="Rectangle" stroke="#979797" fill="#E30613" x="0.5" y="0.5" width="1439" height="287"></rect>
            <g id="Navigation" transform="translate(654.000000, 111.500000)" fill="#FEFEFE">
                <polygon id="Fill-1" points="25.5813353 1 17 7.55658251 96.4178815 113 105 106.443417"></polygon>
            </g>
        </g>
    </g>
</svg>